{
  "info": {
    "_postman_id": "3869b9f0-543f-4549-af07-f98f00bf6968",
    "name": "Unipol:NewRelic_v1 (Shared)",
    "schema": "https://schema.getpostman.com/json/collection/v2.0.0/collection.json"
  },
  "item": [
    {
      "name": "NR_WEB Active Users",
      "id": "b6b50044-470b-482d-bcda-5bcbea9aa592",
      "protocolProfileBehavior": {
        "disableBodyPruning": true
      },
      "request": {
        "auth": {
          "type": "apikey",
          "apikey": {
            "value": "NRAK-GEX9WHFQF6SR817RM8C4GSDXK5S",
            "key": "api-key",
            "in": "header"
          }
        },
        "method": "GET",
        "header": [],
        "url": {
          "raw": "https://api.eu.newrelic.com/v2/applications/322551215/metrics/data.json?application_id=322551215&names[]=EndUser/Session&values[]=sessions_active",
          "protocol": "https",
          "host": [
            "api",
            "eu",
            "newrelic",
            "com"
          ],
          "path": [
            "v2",
            "applications",
            "322551215",
            "metrics",
            "data.json"
          ],
          "query": [
            {
              "key": "application_id",
              "value": "322551215"
            },
            {
              "key": "names[]",
              "value": "EndUser/Session"
            },
            {
              "key": "values[]",
              "value": "sessions_active"
            }
          ]
        }
      },
      "response": []
    },
    {
      "name": "NR_WEB Tempo medio Sessione",
      "id": "a5640b31-d240-4f6c-b5d2-441ea8956745",
      "protocolProfileBehavior": {
        "disableBodyPruning": true
      },
      "request": {
        "auth": {
          "type": "apikey",
          "apikey": {
            "value": "NRAK-GEX9WHFQF6SR817RM8C4GSDXK5S",
            "key": "api-key",
            "in": "header"
          }
        },
        "method": "POST",
        "header": [
          {
            "key": "Content-Type",
            "value": "application/graphql",
            "type": "text"
          }
        ],
        "body": {
          "mode": "raw",
          "raw": "query {\r\n  actor {\r\n    account(id: 3346717) {\r\n      nrql(query: \"SELECT uniques(session), (max(timestamp)/1000) - (min(timestamp)/1000) from PageView since 3 minutes ago FACET session\") {\r\n        results\r\n      }\r\n    }\r\n  }\r\n}",
          "options": {
            "raw": {
              "language": "text"
            }
          }
        },
        "url": "https://api.eu.newrelic.com/graphql"
      },
      "response": []
    },
    {
      "name": "NR_WEB Quotatori 500/Tempi",
      "id": "f0f903d8-2539-4ac2-a07e-00f68d0e477d",
      "protocolProfileBehavior": {
        "disableBodyPruning": true
      },
      "request": {
        "auth": {
          "type": "apikey",
          "apikey": {
            "value": "NRAK-GEX9WHFQF6SR817RM8C4GSDXK5S",
            "key": "api-key",
            "in": "header"
          }
        },
        "method": "POST",
        "header": [
          {
            "key": "Content-Type",
            "value": "application/graphql",
            "type": "text"
          }
        ],
        "body": {
          "mode": "raw",
          "raw": "query {\r\n  actor {\r\n    account(id: 3346717) {\r\n      nrql(query: \"SELECT count(*),average(jsDuration)  FROM AjaxRequest FACET requestUrl,httpResponseCode WHERE requestUrl = 'www.unipolsai.it/api/pub/quotatori/auto/v2/transazioni' or requestUrl = 'www.unipolsai.it/api/pub/quotatori/auto/v2/bloccaprezzo' or requestUrl = 'www.unipolsai.it/api/pub/quotatori/auto/v2/ricalcola' OR requestUrl = 'www.unipolsai.it/api/pub/quotatori/auto/v2/calcola' OR requestUrl = 'www.unipolsai.it/api/pub/configuratore/viaggi/v1/quotazioni' OR requestUrl = 'www.unipolsai.it/api/pub/configuratore/viaggi/v1/nazioni' OR requestUrl = 'www.unipolsai.it/api/pub/configuratore/viaggi/v1/bloccaprezzo'  OR requestUrl = 'www.unipolsai.it/api/pub/configuratore/viaggi/v1/calcolo' OR requestUrl = 'www.unipolsai.it/api/pub/configuratore/petemd/v1/razze'  OR requestUrl = 'www.unipolsai.it/api/pub/configuratore/petemd/v1/bloccaprezzo' OR requestUrl = 'www.unipolsai.it/api/pub/configuratore/petemd/v1/calcolo' OR requestUrl = 'www.unipolsai.it/api/pub/configuratore/petemd/v1/quotazioni' OR requestUrl = 'www.unipolsai.it/api/pub/configuratore/petemd/v1/calcolo' OR requestUrl = 'www.unipolsai.it/api/pub/configuratore/casa/v1/quotazioni' OR requestUrl = 'www.unipolsai.it/api/pub/configuratore/casa/v1/calcolo' OR requestUrl = 'www.unipolsai.it/api/pub/configuratore/casa/v1/bloccaprezzo' OR requestUrl = 'www.unipolsai.it/api/pub/configuratore/condominio/v1/quotazioni' OR requestUrl = 'www.unipolsai.it/api/pub/configuratore/condominio/v1/calcolo' OR requestUrl = 'www.unipolsai.it/api/pub/configuratore/condominio/v1/bloccaprezzo' OR requestUrl = 'www.unipolsai.it/api/pub/configuratore/commercio/v1/quotazioni' OR requestUrl = 'www.unipolsai.it/api/pub/configuratore/commercio/v1/calcolo' OR requestUrl = 'www.unipolsai.it/api/pub/configuratore/commercio/v1/bloccaprezzo' OR requestUrl = 'www.unipolsai.it/api/pub/configuratore/impresa/v1/quotazioni' OR requestUrl = 'www.unipolsai.it/api/pub/configuratore/impresa/v1/calcolo' OR requestUrl = 'www.unipolsai.it/api/pub/configuratore/impresa/v1/bloccaprezzo' OR requestUrl = 'www.unipolsai.it/api/pub/configuratore/salute360/v1/quotazioni' OR requestUrl = 'www.unipolsai.it/api/pub/configuratore/salute360/v1/calcolo' OR requestUrl = 'www.unipolsai.it/api/pub/configuratore/salute360/v1/bloccaprezzo' OR requestUrl = 'www.unipolsai.it/api/pub/configuratore/infortuni/v1/quotazioni' OR requestUrl = 'www.unipolsai.it/api/pub/configuratore/infortuni/v1/calcolo' OR requestUrl = 'www.unipolsai.it/api/pub/configuratore/infortuni/v1/bloccaprezzo'  SINCE 30 minutes ago TIMESERIES 1 minute\") {\r\n        results\r\n      }\r\n    }\r\n  }\r\n}",
          "options": {
            "raw": {
              "language": "text"
            }
          }
        },
        "url": "https://api.eu.newrelic.com/graphql"
      },
      "response": []
    },
    {
      "name": "NR_WEB Errori/Success",
      "id": "212148d4-1ee1-4078-ae36-85f4de931e1f",
      "protocolProfileBehavior": {
        "disableBodyPruning": true
      },
      "request": {
        "auth": {
          "type": "apikey",
          "apikey": {
            "value": "NRAK-GEX9WHFQF6SR817RM8C4GSDXK5S",
            "key": "api-key",
            "in": "header"
          }
        },
        "method": "GET",
        "header": [],
        "url": {
          "raw": "https://api.eu.newrelic.com/v2/applications/322551215/metrics/data.json?application_id=322551215&names[]=EndUser/errors&values[]=error_percentage",
          "protocol": "https",
          "host": [
            "api",
            "eu",
            "newrelic",
            "com"
          ],
          "path": [
            "v2",
            "applications",
            "322551215",
            "metrics",
            "data.json"
          ],
          "query": [
            {
              "key": "application_id",
              "value": "322551215"
            },
            {
              "key": "names[]",
              "value": "EndUser/errors"
            },
            {
              "key": "values[]",
              "value": "error_percentage"
            }
          ]
        }
      },
      "response": []
    },
    {
      "name": "NR_WEB Tempo di Risposta",
      "id": "8214d19c-8fad-4b7a-9c47-76c1eb5886b5",
      "protocolProfileBehavior": {
        "disableBodyPruning": true
      },
      "request": {
        "auth": {
          "type": "apikey",
          "apikey": {
            "value": "NRAK-GEX9WHFQF6SR817RM8C4GSDXK5S",
            "key": "api-key",
            "in": "header"
          }
        },
        "method": "GET",
        "header": [],
        "url": {
          "raw": "https://api.eu.newrelic.com/v2/applications/322551215/metrics/data.json?application_id=322551215&names[]=EndUser&values[]=average_response_time",
          "protocol": "https",
          "host": [
            "api",
            "eu",
            "newrelic",
            "com"
          ],
          "path": [
            "v2",
            "applications",
            "322551215",
            "metrics",
            "data.json"
          ],
          "query": [
            {
              "key": "application_id",
              "value": "322551215"
            },
            {
              "key": "names[]",
              "value": "EndUser"
            },
            {
              "key": "values[]",
              "value": "average_response_time"
            }
          ]
        }
      },
      "response": []
    },
    {
      "name": "NR_UEBA Active Users",
      "id": "503fbefb-1c0e-487b-a977-59e5a6d0a06b",
      "protocolProfileBehavior": {
        "disableBodyPruning": true
      },
      "request": {
        "auth": {
          "type": "apikey",
          "apikey": {
            "value": "NRAK-AZLJBTU7V920Z3GPRLEA4VMPHOA",
            "key": "api-key",
            "in": "header"
          }
        },
        "method": "GET",
        "header": [],
        "url": {
          "raw": "https://api.eu.newrelic.com/v2/applications/19992440/metrics/data.json?application_id=19992440&names[]=EndUser/Session&values[]=sessions_active",
          "protocol": "https",
          "host": [
            "api",
            "eu",
            "newrelic",
            "com"
          ],
          "path": [
            "v2",
            "applications",
            "19992440",
            "metrics",
            "data.json"
          ],
          "query": [
            {
              "key": "application_id",
              "value": "19992440"
            },
            {
              "key": "names[]",
              "value": "EndUser/Session"
            },
            {
              "key": "values[]",
              "value": "sessions_active"
            }
          ]
        }
      },
      "response": []
    },
    {
      "name": "NR_UEBA Errori/Success",
      "id": "b0dd93c4-d9c2-4650-91a6-3690ccc03b81",
      "protocolProfileBehavior": {
        "disableBodyPruning": true
      },
      "request": {
        "auth": {
          "type": "apikey",
          "apikey": {
            "value": "NRAK-AZLJBTU7V920Z3GPRLEA4VMPHOA",
            "key": "api-key",
            "in": "header"
          }
        },
        "method": "GET",
        "header": [],
        "url": {
          "raw": "https://api.newrelic.com/v2/applications/19992440/metrics/data.json?application_id=19992440&names[]=EndUser/errors&values[]=error_percentage",
          "protocol": "https",
          "host": [
            "api",
            "newrelic",
            "com"
          ],
          "path": [
            "v2",
            "applications",
            "19992440",
            "metrics",
            "data.json"
          ],
          "query": [
            {
              "key": "application_id",
              "value": "19992440"
            },
            {
              "key": "names[]",
              "value": "EndUser/errors"
            },
            {
              "key": "values[]",
              "value": "error_percentage"
            }
          ]
        }
      },
      "response": []
    },
    {
      "name": "NR_UEBA Tempo medio Sessione",
      "id": "890c2a4f-ec47-4843-b236-5ec7d0780701",
      "protocolProfileBehavior": {
        "disableBodyPruning": true
      },
      "request": {
        "auth": {
          "type": "apikey",
          "apikey": {
            "value": "NRAK-AZLJBTU7V920Z3GPRLEA4VMPHOA",
            "key": "api-key",
            "in": "header"
          }
        },
        "method": "POST",
        "header": [
          {
            "key": "Content-Type",
            "value": "application/graphql",
            "type": "text"
          }
        ],
        "body": {
          "mode": "raw",
          "raw": "query {\r\n  actor {\r\n    account(id: 1286434) {\r\n      nrql(query: \"SELECT uniques(session), (max(timestamp)/1000) - (min(timestamp)/1000) from PageView since 3 minutes ago FACET session\") {\r\n        results\r\n      }\r\n    }\r\n  }\r\n}",
          "options": {
            "raw": {
              "language": "text"
            }
          }
        },
        "url": "https://api.newrelic.com/graphql"
      },
      "response": []
    },
    {
      "name": "NR_UEBA Tempo medio Caricamento",
      "id": "1ba431fc-765d-4628-92a4-cd061435855c",
      "protocolProfileBehavior": {
        "disableBodyPruning": true
      },
      "request": {
        "auth": {
          "type": "apikey",
          "apikey": {
            "value": "NRAK-AZLJBTU7V920Z3GPRLEA4VMPHOA",
            "key": "api-key",
            "in": "header"
          }
        },
        "method": "GET",
        "header": [],
        "url": {
          "raw": "https://api.newrelic.com/v2/applications/19992440/metrics/data.json?application_id=19992440&names[]=EndUser/RB&values[]=average_dom_content_load_time",
          "protocol": "https",
          "host": [
            "api",
            "newrelic",
            "com"
          ],
          "path": [
            "v2",
            "applications",
            "19992440",
            "metrics",
            "data.json"
          ],
          "query": [
            {
              "key": "application_id",
              "value": "19992440"
            },
            {
              "key": "names[]",
              "value": "EndUser/RB"
            },
            {
              "key": "values[]",
              "value": "average_dom_content_load_time"
            }
          ]
        }
      },
      "response": []
    },
    {
      "name": "NR_UEBA WebServices 500/Tempi",
      "id": "e1e892c7-cddc-4c1f-8402-f6b1dc3b7823",
      "protocolProfileBehavior": {
        "disableBodyPruning": true
      },
      "request": {
        "auth": {
          "type": "apikey",
          "apikey": {
            "value": "NRAK-AZLJBTU7V920Z3GPRLEA4VMPHOA",
            "key": "api-key",
            "in": "header"
          }
        },
        "method": "POST",
        "header": [
          {
            "key": "Content-Type",
            "value": "application/graphql",
            "type": "text"
          }
        ],
        "body": {
          "mode": "raw",
          "raw": "query{\r\n  actor {\r\n    account(id: 1286434) {\r\n      nrql(query: \"SELECT count(*),average(jsDuration)  FROM AjaxRequest FACET requestUrl, httpResponseCode WHERE requestUrl LIKE '%/wex/%' OR requestUrl LIKE '%/UebAMenuAppsServiceWeb/%' OR requestUrl LIKE '%/infra/services/%' OR requestUrl LIKE '%/ueba/wcmextensions/jaxrs/contacts/%' OR requestUrl LIKE '%/essigSX%' OR requestUrl LIKE '%/UebAFormServiceWeb/rest/anagrafica/%' OR requestUrl LIKE '%/UebAKnetServiceWeb/%' SINCE 30 minutes AGO TIMESERIES 1 minute\") {\r\n        results\r\n      }\r\n    }\r\n  }\r\n}",
          "options": {
            "raw": {
              "language": "text"
            }
          }
        },
        "url": "https://api.newrelic.com/graphql"
      },
      "response": []
    }
  ]
}