{
  "info": {
    "_postman_id": "84546d23-7ccc-4ba7-8afd-49ad44fbc50d",
    "name": "Unipol: ElasticSearch",
    "schema": "https://schema.getpostman.com/json/collection/v2.0.0/collection.json"
  },
  "item": [
    {
      "name": "1.NO _____ NR_WEB Tempo di Risposta",
      "id": "3b28f757-b7a1-4e6f-9b61-d45ebcad0eef",
      "protocolProfileBehavior": {
        "disableBodyPruning": true
      },
      "request": {
        "method": "POST",
        "header": [],
        "body": {
          "mode": "raw",
          "raw": "{\"index\" : { \"_index\" : \"nr_web_tempo_medio_di_risposta\", \"_type\" : \"tempo_medio_di_risposta\"}}\r\n{ \"datefrom\": \"2022-03-22T16:23:00+00:00\",\"dateto\": \"2022-03-22T16:14:00+00:00\", \"values\": {\"sessions_active\": 710 }}\r\n{\"index\" : { \"_index\" : \"nr_web_tempo_medio_di_risposta\", \"_type\" : \"tempo_medio_di_risposta\"}}\r\n{\"datefrom\": \"2022-03-31T14:11:00+00:00\",\"dateto\": \"2022-03-31T14:12:00+00:00\", \"values\": {   \"average_response_time\": 0 }}\r\n{\"index\" : { \"_index\" : \"nr_web_tempo_medio_di_risposta\", \"_type\" : \"tempo_medio_di_risposta\"}}\r\n{ \"datefrom\": \"2022-03-31T14:12:00+00:00\", \"dateto\": \"2022-03-31T14:13:00+00:00\", \"values\": {\"average_response_time\": 0 } }\r\n",
          "options": {
            "raw": {
              "language": "json"
            }
          }
        },
        "url": "192.168.3.173:9200/_bulk/"
      },
      "response": []
    },
    {
      "name": "2.NO ____NR_WEB Errori/Success",
      "id": "02e22f30-7572-4a3e-80e0-39f71e57f51c",
      "protocolProfileBehavior": {
        "disableBodyPruning": true
      },
      "request": {
        "method": "POST",
        "header": [],
        "body": {
          "mode": "raw",
          "raw": "{\"index\" : { \"_index\" : \"nr_web_errori_sucess_13\", \"_type\" : \"errori_success\"}}\r\n{\"datefrom\": \"2022-03-25T16:24:00+00:00\", \"dateto\": \"2022-03-22T16:25:00+00:00\", \"values\": {\"error_percentage\": 24}}\r\n{\"index\" : { \"_index\" : \"nr_web_errori_sucess_13\", \"_type\" : \"errori_success\"}}\r\n{\"datefrom\": \"2022-03-25T16:23:00+00:00\",\"dateto\": \"2022-03-22T16:24:00+00:00\",\"values\": {\"error_percentage\": 23}}\r\n{\"index\" : { \"_index\" : \"nr_web_errori_sucess_13\", \"_type\" : \"errori_success\"}}\r\n{\"datefrom\": \"2022-03-25T16:25:00+00:00\", \"dateto\": \"2022-03-22T16:26:00+00:00\", \"values\": {\"error_percentage\": 25}}\r\n{\"index\" : { \"_index\" : \"nr_web_errori_sucess_13\", \"_type\" : \"errori_success\"}}\r\n{\"datefrom\": \"2022-03-25T16:26:00+00:00\",\"dateto\": \"2022-03-22T16:27:00+00:00\",\"values\": {\"error_percentage\": 26}}\r\n",
          "options": {
            "raw": {
              "language": "json"
            }
          }
        },
        "url": "192.168.3.173:9200/_bulk/"
      },
      "response": []
    },
    {
      "name": "New Request",
      "id": "e02a8f92-a798-412a-8b6d-90d5ac062005",
      "protocolProfileBehavior": {
        "disableBodyPruning": true
      },
      "request": {
        "auth": {
          "type": "basic",
          "basic": {
            "password": "giacosag",
            "username": "giacosag"
          }
        },
        "method": "GET",
        "header": [],
        "url": {
          "raw": "192.168.3.173:9200/testnewrelic/activeusers/1?pretty",
          "host": [
            "192",
            "168",
            "3",
            "173"
          ],
          "port": "9200",
          "path": [
            "testnewrelic",
            "activeusers",
            "1"
          ],
          "query": [
            {
              "key": "pretty",
              "value": null
            }
          ]
        }
      },
      "response": []
    },
    {
      "name": "New Request Copy",
      "id": "171a542c-742f-49f1-8490-1f14533d1eca",
      "protocolProfileBehavior": {
        "disableBodyPruning": true
      },
      "request": {
        "auth": {
          "type": "basic",
          "basic": {
            "password": "giacosag",
            "username": "giacosag"
          }
        },
        "method": "POST",
        "header": [
          {
            "key": "Content-Type",
            "value": "application/json",
            "type": "text"
          }
        ],
        "body": {
          "mode": "raw",
          "raw": "{\"metric_data\":\r\n[{\"from\":\"2022-03-14T16:56:00+00:00\",\"to\":\"2022-03-14T16:57:00+00:00\",\"values\":{\"average_dom_content_load_time\":2901}},\r\n{\"from\":\"2022-03-14T16:56:00+00:00\",\"to\":\"2022-03-14T16:57:00+00:00\",\"values\":{\"average_dom_content_load_time\":2900}}]\r\n}"
        },
        "url": "192.168.3.173:9200/testnewrelic_2/2"
      },
      "response": []
    },
    {
      "name": "New Request Copy 2",
      "id": "4c427858-24a0-4082-9a18-782520872efe",
      "protocolProfileBehavior": {
        "disableBodyPruning": true
      },
      "request": {
        "auth": {
          "type": "basic",
          "basic": {
            "password": "giacosag",
            "username": "giacosag"
          }
        },
        "method": "PUT",
        "header": [
          {
            "key": "Content-Type",
            "value": "application/json",
            "type": "text"
          }
        ],
        "body": {
          "mode": "raw",
          "raw": "{\r\n\t\t\"platform\": \"android\",\r\n\t\t\"bundle_identifier\": \"it.unipolsai.clientitpd\",\r\n\t\t\"event_id\": \"111111111172118942\",\r\n\t\t\"is_fatal\": true,\r\n\t\t\"issue_id\": \"e01cd939225c65c1b2017d2ec6494028\",\r\n\t\t\"issue_title\": \"CoreAutoLayout\",\r\n\t\t\"issue_subtitle\": \"-[NSISEngine withAutomaticOptimizationDisabled\",\r\n\t\t\"event_timestamp\": \"2022-02-13 00:48:33 UTC\",\r\n\t\t\"received_timestamp\": \"2022-02-13 00:48:35 UTC\",\r\n\t\t\"device\": {\r\n\t\t\t\"manufacturer\": \"oppo_3\",\r\n\t\t\t\"model\": \"oppo_MODEL\",\r\n\t\t\t\"architecture\": \"oppo_ARM64\"\r\n\t\t},\r\n\t\t\"memory\": {\r\n\t\t\t\"used\": 5062721536,\r\n\t\t\t\"free\": 336183296\r\n\t\t},\r\n\t\t\"storage\": {\r\n\t\t\t\"used\": 81781846016,\r\n\t\t\t\"free\": 174099619840\r\n\t\t},\r\n\t\t\"operating_system\": {\r\n\t\t\t\"display_version\": \"15.0\",\r\n\t\t\t\"name\": \"15.3\",\r\n\t\t\t\"modification_state\": \"bbbbb\",\r\n\t\t\t\"type\": \"bbbb\",\r\n\t\t\t\"device_type\": \"bbbb\"\r\n\t\t},\r\n\t\t\"application\": {\r\n\t\t\t\"build_version\": \"1880\",\r\n\t\t\t\"display_version\": \"4.1.6\"\r\n\t\t},\r\n\t\t\"user\": null,\r\n\t\t\"custom_keys\": [\r\n\t\t\t{\r\n\t\t\t\t\"key\": \"bbbbbbbbb\",\r\n\t\t\t\t\"value\": \"https://glasaaaabui/#/sessions/integration_id:a898018c-8c66-11ec-9e4d-45bdf302021e/replay?from=1644706800000&till=1644793199999\"\r\n\t\t\t}]}\r\n\r\n\r\n            "
        },
        "url": "192.168.3.173:9200/test_p/prova_stringa/1"
      },
      "response": []
    },
    {
      "name": "New Request",
      "id": "c2888759-abe0-4de5-99dc-bdd4567ad916",
      "protocolProfileBehavior": {
        "disableBodyPruning": true
      },
      "request": {
        "method": "GET",
        "header": []
      },
      "response": []
    },
    {
      "name": "New Request Copy",
      "id": "94cf0e57-2cf6-45dd-91b1-62d87c187288",
      "protocolProfileBehavior": {
        "disableBodyPruning": true
      },
      "request": {
        "method": "GET",
        "header": []
      },
      "response": []
    },
    {
      "name": "Test ARRAY",
      "id": "d4a89ac9-553f-410b-89db-bc25aad2a665",
      "protocolProfileBehavior": {
        "disableBodyPruning": true
      },
      "request": {
        "method": "POST",
        "header": [],
        "body": {
          "mode": "raw",
          "raw": "{\"index\" : { \"_index\" : \"nr_web_quotatori_500_tempi_12\", \"_type\" : \"quotatori_500\"}}\r\n{ \"facet\": [ \"www.unipolsai.it/api/pub/configuratore/petemd/v1/razze\", \"200\" ], \"average.jsDuration\": 0.02272704948998863, \"count\": 6584, \"datefrom\": 1648045171618.0  }\r\n{\"index\" : { \"_index\" : \"nr_web_quotatori_500_tempi_12\", \"_type\" : \"quotatori_500\"}}\r\n{ \"facet\": [ \"www.unipolsai.it/api/pub/quotatori/auto/v2/ricalcola\", \"200\" ], \"average.jsDuration\": 0.148, \"count\": 24276, \"datefrom\": 1648045163400.0 }\r\n{\"index\" : { \"_index\" : \"nr_web_quotatori_500_tempi_12\", \"_type\" : \"quotatori_500\"}}\r\n{ \"facet\": [\"www.unipolsai.it/api/pub/quotatori/auto/v2/transazioni\", \"200\" ], \"average.jsDuration\": 0.46584210526315806,\"count\": 18810, \"datefrom\": 1648045193804.0 }\r\n",
          "options": {
            "raw": {
              "language": "json"
            }
          }
        },
        "url": "192.168.3.173:9200/_bulk/"
      },
      "response": []
    },
    {
      "name": "Test ARRAY Copy",
      "id": "9122e3e9-61ec-4e98-a4e3-0cf8fdc0b475",
      "protocolProfileBehavior": {
        "disableBodyPruning": true
      },
      "request": {
        "method": "POST",
        "header": [],
        "body": {
          "mode": "raw",
          "raw": "{\"index\" : { \"_index\" : \"nr_web_quotatori_500_tempi_12\", \"_type\" : \"quotatori_500\"}}\r\n{ \"facet\": [ \"www.unipolsai.it/api/pub/configuratore/petemd/v1/razze\", \"200\" ], \"average.jsDuration\": 0.02272704948998863, \"count\": 6584, \"datefrom\": 1648045171618.0  }\r\n{\"index\" : { \"_index\" : \"nr_web_quotatori_500_tempi_12\", \"_type\" : \"quotatori_500\"}}\r\n{ \"facet\": [ \"www.unipolsai.it/api/pub/quotatori/auto/v2/ricalcola\", \"200\" ], \"average.jsDuration\": 0.148, \"count\": 24276, \"datefrom\": 1648045163400.0 }\r\n{\"index\" : { \"_index\" : \"nr_web_quotatori_500_tempi_12\", \"_type\" : \"quotatori_500\"}}\r\n{ \"facet\": [\"www.unipolsai.it/api/pub/quotatori/auto/v2/transazioni\", \"200\" ], \"average.jsDuration\": 0.46584210526315806,\"count\": 18810, \"datefrom\": 1648045193804.0 }\r\n",
          "options": {
            "raw": {
              "language": "json"
            }
          }
        },
        "url": "192.168.3.173:9200/_bulk/"
      },
      "response": []
    },
    {
      "name": "inserimento record BULK",
      "id": "f353fea1-7b6c-4e37-8e58-b732da0d16ad",
      "protocolProfileBehavior": {
        "disableBodyPruning": true
      },
      "request": {
        "auth": {
          "type": "basic",
          "basic": {
            "password": "giacosag",
            "username": "giacosag"
          }
        },
        "method": "POST",
        "header": [
          {
            "key": "Content-Type",
            "value": "application/json",
            "type": "text",
            "disabled": true
          }
        ],
        "body": {
          "mode": "raw",
          "raw": "{ \"index\" : { \"_index\" : \"newrelic2\", \"_type\" : \"active_user\"}}\r\n{\"avg_session_time\":1824.4509999752045,\"session\":\"01dd66363ab387df\"}\r\n{ \"index\" : { \"_index\" : \"newrelic2\", \"_type\" : \"active_user\"}}\r\n{\"avg_session_time\":1854.4509999752045,\"session\":\"11dd66363ab387df\"}\r\n{ \"index\" : { \"_index\" : \"newrelic2\", \"_type\" : \"active_user\"}}\r\n{\"avg_session_time\":1826.4509999752045,\"session\":\"21dd66363ab387df\"}\r\n{ \"index\" : { \"_index\" : \"newrelic2\", \"_type\" : \"active_user\"}}\r\n{\"avg_session_time\":1000.4509999752045,\"session\":\"31dd66363ab387df\"}\r\n{ \"index\" : { \"_index\" : \"newrelic2\", \"_type\" : \"active_user\"}}\r\n{\"avg_session_time\":1334.4509999752045,\"session\":\"41dd66366ab387df\"}\r\n{ \"index\" : { \"_index\" : \"newrelic2\", \"_type\" : \"active_user\"}}\r\n{\"avg_session_time\":1556.4509999752045,\"session\":\"51dd66553ab387df\"}\r\n\r\n",
          "options": {
            "raw": {
              "language": "json"
            }
          }
        },
        "url": "192.168.3.173:9200/_bulk/"
      },
      "response": []
    },
    {
      "name": "creazione indice",
      "id": "5833fe9d-51d6-404a-a72f-2dbb714afcdc",
      "protocolProfileBehavior": {
        "disableBodyPruning": true
      },
      "request": {
        "auth": {
          "type": "basic",
          "basic": {
            "password": "giacosag",
            "username": "giacosag"
          }
        },
        "method": "PUT",
        "header": [
          {
            "key": "Content-Type",
            "value": "application/json",
            "type": "text",
            "disabled": true
          }
        ],
        "url": "192.168.3.173:9200/test_newrelic_metriche_16/"
      },
      "response": []
    },
    {
      "name": "inserimento record ESEMPIO CRASH",
      "id": "965e7396-f429-4b04-a0e5-381bbb86c508",
      "protocolProfileBehavior": {
        "disableBodyPruning": true
      },
      "request": {
        "auth": {
          "type": "basic",
          "basic": {
            "password": "giacosag",
            "username": "giacosag"
          }
        },
        "method": "POST",
        "header": [
          {
            "key": "Content-Type",
            "value": "application/json",
            "type": "text"
          }
        ],
        "body": {
          "mode": "raw",
          "raw": "{\r\n\t\t\"platform\": \"IOS\",\r\n\t\t\"bundle_identifier\": \"it.unipolsai.clientitpd\",\r\n\t\t\"event_id\": \"1642435495972118942\",\r\n\t\t\"is_fatal\": true,\r\n\t\t\"issue_id\": \"e01cd939225c65c1b2017d2ec6494028\",\r\n\t\t\"issue_title\": \"CoreAutoLayout\",\r\n\t\t\"issue_subtitle\": \"-[NSISEngine withAutomaticOptimizationDisabled\",\r\n\t\t\"event_timestamp\": \"2022-02-13 00:48:33 UTC\",\r\n\t\t\"received_timestamp\": \"2022-02-13 00:48:35 UTC\",\r\n\t\t\"device\": {\r\n\t\t\t\"manufacturer\": \"Apple\",\r\n\t\t\t\"model\": \"iPhone13,4\",\r\n\t\t\t\"architecture\": \"ARM64\"\r\n\t\t},\r\n\t\t\"memory\": {\r\n\t\t\t\"used\": 5062721536,\r\n\t\t\t\"free\": 336183296\r\n\t\t},\r\n\t\t\"storage\": {\r\n\t\t\t\"used\": 81781846016,\r\n\t\t\t\"free\": 174099619840\r\n\t\t},\r\n\t\t\"operating_system\": {\r\n\t\t\t\"display_version\": \"15.3.0\",\r\n\t\t\t\"name\": \"15.3.0 (19D50)\",\r\n\t\t\t\"modification_state\": \"UNMODIFIED\",\r\n\t\t\t\"type\": \"IOS\",\r\n\t\t\t\"device_type\": \"MOBILE\"\r\n\t\t},\r\n\t\t\"application\": {\r\n\t\t\t\"build_version\": \"1880\",\r\n\t\t\t\"display_version\": \"4.1.6\"\r\n\t\t},\r\n\t\t\"user\": null,\r\n\t\t\"custom_keys\": [\r\n\t\t\t{\r\n\t\t\t\t\"key\": \"GlassboxSessionLink\",\r\n\t\t\t\t\"value\": \"https://glassboxdigital.servizi.gr-u.it/webinterface/webui/#/sessions/integration_id:a898018c-8c66-11ec-9e4d-45bdf302021e/replay?from=1644706800000&till=1644793199999\"\r\n\t\t\t}\r\n\t\t]}\r\n        \r\n\t"
        },
        "url": "192.168.3.173:9200/test_gg_10/metrica/"
      },
      "response": []
    },
    {
      "name": "inserimento record",
      "id": "1f499c07-c333-4e8a-b299-389766cef8ba",
      "protocolProfileBehavior": {
        "disableBodyPruning": true
      },
      "request": {
        "auth": {
          "type": "basic",
          "basic": {
            "password": "giacosag",
            "username": "giacosag"
          }
        },
        "method": "POST",
        "header": [
          {
            "key": "Content-Type",
            "value": "application/json",
            "type": "text"
          }
        ],
        "body": {
          "mode": "raw",
          "raw": "[{\"from\":\"2022-03-14T16:56:00+00:00\",\"to\":\"2022-03-14T16:57:00+00:00\",\r\n\"values\":{\"average_dom_content_load_time\":2950}}\r\n,{\"from\":\"2022-03-14T16:57:00+00:00\",\"to\":\"2022-03-14T16:58:00+00:00\",\r\n\"values\":{\"average_dom_content_load_time\":2920}},\r\n{\"from\":\"2022-03-14T16:58:00+00:00\",\r\n\"to\":\"2022-03-14T16:59:00+00:00\",\"values\":{\"average_dom_content_load_time\":2780}}]"
        },
        "url": "192.168.3.173:9200/test_newrelic_metriche_16/avg_load_time/"
      },
      "response": []
    },
    {
      "name": "creazione indice",
      "id": "d3944e83-2681-4d38-9dee-14a4f305c30d",
      "protocolProfileBehavior": {
        "disableBodyPruning": true
      },
      "request": {
        "auth": {
          "type": "basic",
          "basic": {
            "password": "giacosag",
            "username": "giacosag"
          }
        },
        "method": "PUT",
        "header": [
          {
            "key": "Content-Type",
            "value": "application/json",
            "type": "text",
            "disabled": true
          }
        ],
        "url": "192.168.3.173:9200/test_newrelic_metriche_16/"
      },
      "response": []
    },
    {
      "name": "inserimento indice funzionante",
      "id": "2cf933fd-c7be-47fc-b764-a22abf4fba78",
      "protocolProfileBehavior": {
        "disableBodyPruning": true
      },
      "request": {
        "auth": {
          "type": "basic",
          "basic": {
            "password": "giacosag",
            "username": "giacosag"
          }
        },
        "method": "PUT",
        "header": [
          {
            "key": "Content-Type",
            "value": "application/json",
            "type": "text"
          }
        ],
        "url": "192.168.3.173:9200/test_gg_13/"
      },
      "response": []
    },
    {
      "name": "inserimento indice funzioante _8_facet",
      "id": "2f4d2923-1533-46cf-a6af-4dc31ad54e61",
      "protocolProfileBehavior": {
        "disableBodyPruning": true
      },
      "request": {
        "auth": {
          "type": "basic",
          "basic": {
            "password": "giacosag",
            "username": "giacosag"
          }
        },
        "method": "PUT",
        "header": [
          {
            "key": "Content-Type",
            "value": "application/json",
            "type": "text"
          }
        ],
        "url": "192.168.3.173:9200/test_gg_8/"
      },
      "response": []
    },
    {
      "name": "inserimento record funzioante _8_facet Copy 2",
      "id": "3e3c78f1-93e6-4c9e-ac99-f9474368b701",
      "protocolProfileBehavior": {
        "disableBodyPruning": true
      },
      "request": {
        "auth": {
          "type": "basic",
          "basic": {
            "password": "giacosag",
            "username": "giacosag"
          }
        },
        "method": "POST",
        "header": [
          {
            "key": "Content-Type",
            "value": "application/json",
            "type": "text"
          }
        ],
        "body": {
          "mode": "raw",
          "raw": "{\r\n    \"data\": {\r\n        \"actor\": {\r\n            \"account\": {\r\n                \"nrql\": {\r\n                    \"results\": [\r\n                        {\r\n                            \"facet\": [\r\n                                \"www.unipolsai.it/api/pub/configuratore/petemd/v1/razze\",\r\n                                \"200\"\r\n                            ],\r\n                            \"average.jsDuration\": 0.017864406779661023,\r\n                            \"count\": 60\r\n                        },\r\n                        {\r\n                            \"facet\": [\r\n                                \"www.unipolsai.it/api/pub/quotatori/auto/v2/ricalcola\",\r\n                                \"200\"\r\n                            ],\r\n                            \"average.jsDuration\": null,\r\n                            \"count\": 42\r\n                        },\r\n                        {\r\n                            \"facet\": [\r\n                                \"www.unipolsai.it/api/pub/quotatori/auto/v2/transazioni\",\r\n                                \"200\"\r\n                            ],\r\n                            \"average.jsDuration\": null,\r\n                            \"count\": 37\r\n                        },\r\n                        {\r\n                            \"facet\": [\r\n                                \"www.unipolsai.it/api/pub/configuratore/petemd/v1/calcolo\",\r\n                                \"200\"\r\n                            ],\r\n                            \"average.jsDuration\": null,\r\n                            \"count\": 33\r\n                        },\r\n                        {\r\n                            \"facet\": [\r\n                                \"www.unipolsai.it/api/pub/configuratore/petemd/v1/quotazioni\",\r\n                                \"200\"\r\n                            ],\r\n                            \"average.jsDuration\": null,\r\n                            \"count\": 20\r\n                        },\r\n                        {\r\n                            \"facet\": [\r\n                                \"www.unipolsai.it/api/pub/configuratore/viaggi/v1/nazioni\",\r\n                                \"200\"\r\n                            ],\r\n                            \"average.jsDuration\": 0.020999999999999998,\r\n                            \"count\": 17\r\n                        },\r\n                        {\r\n                            \"facet\": [\r\n                                \"www.unipolsai.it/api/pub/quotatori/auto/v2/transazioni\",\r\n                                \"201\"\r\n                            ],\r\n                            \"average.jsDuration\": null,\r\n                            \"count\": 11\r\n                        },\r\n                        {\r\n                            \"facet\": [\r\n                                \"www.unipolsai.it/api/pub/configuratore/viaggi/v1/calcolo\",\r\n                                \"200\"\r\n                            ],\r\n                            \"average.jsDuration\": null,\r\n                            \"count\": 6\r\n                        },\r\n                        {\r\n                            \"facet\": [\r\n                                \"www.unipolsai.it/api/pub/configuratore/casa/v1/calcolo\",\r\n                                \"200\"\r\n                            ],\r\n                            \"average.jsDuration\": null,\r\n                            \"count\": 5\r\n                        },\r\n                        {\r\n                            \"facet\": [\r\n                                \"www.unipolsai.it/api/pub/configuratore/viaggi/v1/quotazioni\",\r\n                                \"200\"\r\n                            ],\r\n                            \"average.jsDuration\": null,\r\n                            \"count\": 5\r\n                        }\r\n                    ]\r\n                }\r\n            }\r\n        }\r\n    }\r\n}"
        },
        "url": "192.168.3.173:9200/test_gg_8/metrica/"
      },
      "response": []
    },
    {
      "name": "inserimento record BULK",
      "id": "f3250cfb-edc9-450a-9f73-acfde27a92ed",
      "protocolProfileBehavior": {
        "disableBodyPruning": true
      },
      "request": {
        "auth": {
          "type": "basic",
          "basic": {
            "password": "giacosag",
            "username": "giacosag"
          }
        },
        "method": "POST",
        "header": [
          {
            "key": "Content-Type",
            "value": "application/json",
            "type": "text",
            "disabled": true
          }
        ],
        "body": {
          "mode": "raw",
          "raw": "{ \"index\" : { \"_index\" : \"newrelic2\", \"_type\" : \"active_user\"}}\r\n{\"avg_session_time\":1824.4509999752045,\"session\":\"01dd66363ab387df\"}\r\n{ \"index\" : { \"_index\" : \"newrelic2\", \"_type\" : \"active_user\"}}\r\n{\"avg_session_time\":1854.4509999752045,\"session\":\"11dd66363ab387df\"}\r\n{ \"index\" : { \"_index\" : \"newrelic2\", \"_type\" : \"active_user\"}}\r\n{\"avg_session_time\":1826.4509999752045,\"session\":\"21dd66363ab387df\"}\r\n{ \"index\" : { \"_index\" : \"newrelic2\", \"_type\" : \"active_user\"}}\r\n{\"avg_session_time\":1000.4509999752045,\"session\":\"31dd66363ab387df\"}\r\n{ \"index\" : { \"_index\" : \"newrelic2\", \"_type\" : \"active_user\"}}\r\n{\"avg_session_time\":1334.4509999752045,\"session\":\"41dd66366ab387df\"}\r\n{ \"index\" : { \"_index\" : \"newrelic2\", \"_type\" : \"active_user\"}}\r\n{\"avg_session_time\":1556.4509999752045,\"session\":\"51dd66553ab387df\"}\r\n\r\n",
          "options": {
            "raw": {
              "language": "json"
            }
          }
        },
        "url": "192.168.3.173:9200/_bulk/"
      },
      "response": []
    },
    {
      "name": "SESSIONI_inserimento_SETTEMBRE_2022",
      "id": "3e85a629-42da-4c0f-be74-f4e46c0218b4",
      "protocolProfileBehavior": {
        "disableBodyPruning": true
      },
      "request": {
        "auth": {
          "type": "basic",
          "basic": {
            "password": "giacosag",
            "username": "giacosag"
          }
        },
        "method": "POST",
        "header": [
          {
            "key": "Content-Type",
            "value": "application/json",
            "type": "text",
            "disabled": true
          }
        ],
        "body": {
          "mode": "raw",
          "raw": "{ \"index\" : { \"_index\" : \"newrelic2\", \"_type\" : \"active_user\"}}\r\n{\"avg_session_time\":1824.4509999752045,\"session\":\"01dd66363ab387df\"}\r\n{ \"index\" : { \"_index\" : \"newrelic2\", \"_type\" : \"active_user\"}}\r\n{\"avg_session_time\":1854.4509999752045,\"session\":\"11dd66363ab387df\"}\r\n{ \"index\" : { \"_index\" : \"newrelic2\", \"_type\" : \"active_user\"}}\r\n{\"avg_session_time\":1826.4509999752045,\"session\":\"21dd66363ab387df\"}\r\n{ \"index\" : { \"_index\" : \"newrelic2\", \"_type\" : \"active_user\"}}\r\n{\"avg_session_time\":1000.4509999752045,\"session\":\"31dd66363ab387df\"}\r\n{ \"index\" : { \"_index\" : \"newrelic2\", \"_type\" : \"active_user\"}}\r\n{\"avg_session_time\":1334.4509999752045,\"session\":\"41dd66366ab387df\"}\r\n{ \"index\" : { \"_index\" : \"newrelic2\", \"_type\" : \"active_user\"}}\r\n{\"avg_session_time\":1556.4509999752045,\"session\":\"51dd66553ab387df\"}\r\n\r\n",
          "options": {
            "raw": {
              "language": "json"
            }
          }
        },
        "url": "192.168.3.173:9200/_bulk/"
      },
      "response": []
    },
    {
      "name": "inserimento record funzionante copia",
      "id": "013c708b-257e-4788-b5a6-c103dce031a1",
      "protocolProfileBehavior": {
        "disableBodyPruning": true
      },
      "request": {
        "auth": {
          "type": "basic",
          "basic": {
            "password": "giacosag",
            "username": "giacosag"
          }
        },
        "method": "POST",
        "header": [
          {
            "key": "Content-Type",
            "value": "application/json",
            "type": "text"
          }
        ],
        "body": {
          "mode": "raw",
          "raw": "{\r\n    \"data\": {\r\n        \"actor\": {\r\n            \"account\": {\r\n                \"nrql\": {\r\n                    \"results\": [\r\n                        {\r\n                            \"facet\": [\r\n                                \"www.unipolsai.it/api/pub/configuratore/petemd/v1/razze\",\r\n                                \"200\"\r\n                            ],\r\n                            \"average.jsDuration\": 0.017864406779661023,\r\n                            \"count\": 60\r\n                        },\r\n                        {\r\n                            \"facet\": [\r\n                                \"www.unipolsai.it/api/pub/quotatori/auto/v2/ricalcola\",\r\n                                \"200\"\r\n                            ],\r\n                            \"average.jsDuration\": null,\r\n                            \"count\": 42\r\n                        },\r\n                        {\r\n                            \"facet\": [\r\n                                \"www.unipolsai.it/api/pub/quotatori/auto/v2/transazioni\",\r\n                                \"200\"\r\n                            ],\r\n                            \"average.jsDuration\": null,\r\n                            \"count\": 37\r\n                        },\r\n                        {\r\n                            \"facet\": [\r\n                                \"www.unipolsai.it/api/pub/configuratore/petemd/v1/calcolo\",\r\n                                \"200\"\r\n                            ],\r\n                            \"average.jsDuration\": null,\r\n                            \"count\": 33\r\n                        },\r\n                        {\r\n                            \"facet\": [\r\n                                \"www.unipolsai.it/api/pub/configuratore/petemd/v1/quotazioni\",\r\n                                \"200\"\r\n                            ],\r\n                            \"average.jsDuration\": null,\r\n                            \"count\": 20\r\n                        },\r\n                        {\r\n                            \"facet\": [\r\n                                \"www.unipolsai.it/api/pub/configuratore/viaggi/v1/nazioni\",\r\n                                \"200\"\r\n                            ],\r\n                            \"average.jsDuration\": 0.020999999999999998,\r\n                            \"count\": 17\r\n                        },\r\n                        {\r\n                            \"facet\": [\r\n                                \"www.unipolsai.it/api/pub/quotatori/auto/v2/transazioni\",\r\n                                \"201\"\r\n                            ],\r\n                            \"average.jsDuration\": null,\r\n                            \"count\": 11\r\n                        },\r\n                        {\r\n                            \"facet\": [\r\n                                \"www.unipolsai.it/api/pub/configuratore/viaggi/v1/calcolo\",\r\n                                \"200\"\r\n                            ],\r\n                            \"average.jsDuration\": null,\r\n                            \"count\": 6\r\n                        },\r\n                        {\r\n                            \"facet\": [\r\n                                \"www.unipolsai.it/api/pub/configuratore/casa/v1/calcolo\",\r\n                                \"200\"\r\n                            ],\r\n                            \"average.jsDuration\": null,\r\n                            \"count\": 5\r\n                        },\r\n                        {\r\n                            \"facet\": [\r\n                                \"www.unipolsai.it/api/pub/configuratore/viaggi/v1/quotazioni\",\r\n                                \"200\"\r\n                            ],\r\n                            \"average.jsDuration\": null,\r\n                            \"count\": 5\r\n                        }\r\n                    ]\r\n                }\r\n            }\r\n        }\r\n    }\r\n}"
        },
        "url": "192.168.3.173:9200/test_gg_8/metrica/"
      },
      "response": []
    },
    {
      "name": "to my sql",
      "id": "91c0919c-f336-4fb1-8549-a35d3369f4f6",
      "protocolProfileBehavior": {
        "disableBodyPruning": true
      },
      "request": {
        "auth": {
          "type": "basic",
          "basic": {
            "password": "giacosag",
            "username": "giacosag"
          }
        },
        "method": "POST",
        "header": [
          {
            "key": "Content-Type",
            "value": "application/json",
            "type": "text"
          }
        ],
        "body": {
          "mode": "raw",
          "raw": "{\r\n  \"query\":  \"SELECT session, avg_session_time from newrelic2 where session='31dd66363ab387df'\"\r\n  \r\n}"
        },
        "url": {
          "raw": "192.168.3.173:9200/_sql?format=txt",
          "host": [
            "192",
            "168",
            "3",
            "173"
          ],
          "port": "9200",
          "path": [
            "_sql"
          ],
          "query": [
            {
              "key": "format",
              "value": "txt"
            }
          ]
        }
      },
      "response": []
    },
    {
      "name": "nr_web_tempo_medio_sessione_PER MY SQL",
      "id": "ab35af66-15f1-4475-942d-8cafcc515c4b",
      "protocolProfileBehavior": {
        "disableBodyPruning": true
      },
      "request": {
        "auth": {
          "type": "basic",
          "basic": {
            "password": "giacosag",
            "username": "giacosag"
          }
        },
        "method": "POST",
        "header": [
          {
            "key": "Content-Type",
            "value": "application/json",
            "type": "text"
          }
        ],
        "body": {
          "mode": "raw",
          "raw": "{\r\n  \"query\":  \"SELECT session, avg_session_time from newrelic2 where session='31dd66363ab387df'\"\r\n  \r\n}\r\n### max.timestamp/1.0e3-min.timestamp/1.0e3\" NOME CAMPO/KEY in elastic"
        },
        "url": {
          "raw": "192.168.3.173:9200/_sql?format=txt",
          "host": [
            "192",
            "168",
            "3",
            "173"
          ],
          "port": "9200",
          "path": [
            "_sql"
          ],
          "query": [
            {
              "key": "format",
              "value": "txt"
            }
          ]
        }
      },
      "response": []
    },
    {
      "name": "nr_web_tempo_medio_sessione_PER MY SQL---- DEFINITIVA",
      "id": "c4f911d5-06b3-4dea-a94b-044076bc3a5a",
      "protocolProfileBehavior": {
        "disableBodyPruning": true
      },
      "request": {
        "auth": {
          "type": "basic",
          "basic": {
            "password": "giacosag",
            "username": "giacosag"
          }
        },
        "method": "POST",
        "header": [
          {
            "key": "Content-Type",
            "value": "application/json",
            "type": "text"
          }
        ],
        "body": {
          "mode": "raw",
          "raw": "{\"query\":\"SELECT DATE_ADD('seconds', beginTimeSeconds, '1970-01-01T00:00:00.000Z'::datetime) as event_timestamp, avg(avg_session_time) as avg_session_time from dev_web_newrelic_avgsessiontime group by  beginTimeSeconds\"}\"\r\n\r\n"
        },
        "url": {
          "raw": "192.168.3.173:9200/_sql?format=txt",
          "host": [
            "192",
            "168",
            "3",
            "173"
          ],
          "port": "9200",
          "path": [
            "_sql"
          ],
          "query": [
            {
              "key": "format",
              "value": "txt"
            }
          ]
        }
      },
      "response": []
    },
    {
      "name": "nr_web_quotatori_500_tempi_PER MYSQL",
      "id": "6d531cb8-9799-43e3-a296-3e100f13d031",
      "protocolProfileBehavior": {
        "disableBodyPruning": true
      },
      "request": {
        "auth": {
          "type": "basic",
          "basic": {
            "password": "giacosag",
            "username": "giacosag"
          }
        },
        "method": "POST",
        "header": [
          {
            "key": "Content-Type",
            "value": "application/json",
            "type": "text"
          }
        ],
        "body": {
          "mode": "raw",
          "raw": "{  \"query\":  \"SELECT  count from nr_web_quotatori_500_tempi \"\r\n}\r\n### \"facet\": [ \"www.unipolsai.it/api/pub/configuratore/viaggi/v1/nazioni\",\"200\"]\r\n###\"average.jsDuration"
        },
        "url": {
          "raw": "192.168.3.173:9200/_sql?format=txt",
          "host": [
            "192",
            "168",
            "3",
            "173"
          ],
          "port": "9200",
          "path": [
            "_sql"
          ],
          "query": [
            {
              "key": "format",
              "value": "txt"
            }
          ]
        }
      },
      "response": []
    },
    {
      "name": "nr_web_errori_success_PER MYSQL",
      "id": "591f494e-6093-4b31-a99f-284ab24e647b",
      "protocolProfileBehavior": {
        "disableBodyPruning": true
      },
      "request": {
        "auth": {
          "type": "basic",
          "basic": {
            "password": "giacosag",
            "username": "giacosag"
          }
        },
        "method": "POST",
        "header": [
          {
            "key": "Content-Type",
            "value": "application/json",
            "type": "text"
          }
        ],
        "body": {
          "mode": "raw",
          "raw": "{  \"query\":  \"SELECT values.error_percentage from nr_web_errori_sucess \"}\r\n\r\n## from, to da rinominare (campi datetime)"
        },
        "url": {
          "raw": "192.168.3.173:9200/_sql?format=txt",
          "host": [
            "192",
            "168",
            "3",
            "173"
          ],
          "port": "9200",
          "path": [
            "_sql"
          ],
          "query": [
            {
              "key": "format",
              "value": "txt"
            }
          ]
        }
      },
      "response": []
    },
    {
      "name": "NR_WEB Tempo medio Sessione",
      "id": "68548ff4-a1fe-453b-aeb4-e7fb8049edc6",
      "protocolProfileBehavior": {
        "disableBodyPruning": true
      },
      "request": {
        "method": "POST",
        "header": [],
        "body": {
          "mode": "raw",
          "raw": "{\"index\" : { \"_index\" : \"dev_web_newrelic_avgsessiontime\", \"_type\" : \"avg_session_time\"}}\r\n{ \"facet\": \"a628612ca62c82a3\", \"beginTimeSeconds\":1649320120,  \"endTimeSeconds\":1649320120, \"session\": \"a628612ca62c82a3\", \"avg_session_time\": 1.0, \"uniques.session\": [ \"a628612ca62c82a3\"  ]  }\r\n\r\n\r\n",
          "options": {
            "raw": {
              "language": "json"
            }
          }
        },
        "url": "192.168.3.173:9200/_bulk/"
      },
      "response": []
    },
    {
      "name": "NR_WEB Quotatori 500/Tempi",
      "id": "7a47a747-cb7d-4cdb-bf91-ef06165d3f82",
      "protocolProfileBehavior": {
        "disableBodyPruning": true
      },
      "request": {
        "method": "POST",
        "header": [],
        "body": {
          "mode": "raw",
          "raw": "{\"index\" : { \"_index\" : \"nr_web_quotatori_500_tempi_12\", \"_type\" : \"quotatori_500\"}}\r\n{ \"facet\": [ \"www.unipolsai.it/api/pub/configuratore/petemd/v1/razze\", \"200\" ], \"average.jsDuration\": 0.02272704948998863, \"count\": 6584, \"datefrom\": 1648045171618.0  }\r\n{\"index\" : { \"_index\" : \"nr_web_quotatori_500_tempi_12\", \"_type\" : \"quotatori_500\"}}\r\n{ \"facet\": [ \"www.unipolsai.it/api/pub/quotatori/auto/v2/ricalcola\", \"200\" ], \"average.jsDuration\": 0.148, \"count\": 24276, \"datefrom\": 1648045163400.0 }\r\n{\"index\" : { \"_index\" : \"nr_web_quotatori_500_tempi_12\", \"_type\" : \"quotatori_500\"}}\r\n{ \"facet\": [\"www.unipolsai.it/api/pub/quotatori/auto/v2/transazioni\", \"200\" ], \"average.jsDuration\": 0.46584210526315806,\"count\": 18810, \"datefrom\": 1648045193804.0 }\r\n",
          "options": {
            "raw": {
              "language": "json"
            }
          }
        },
        "url": "192.168.3.173:9200/_bulk/"
      },
      "response": []
    },
    {
      "name": "NR_WEB active_users",
      "id": "5bccddeb-0cc6-4fde-9a2d-609ef5ff4ae5",
      "protocolProfileBehavior": {
        "disableBodyPruning": true
      },
      "request": {
        "method": "POST",
        "header": [],
        "body": {
          "mode": "raw",
          "raw": " {\"index\" : { \"_index\" : \"nr_web_active_users_12\", \"_type\" : \"active_users\"}}\r\n { \"datefrom\": \"2022-03-22T16:23:00+00:00\",\"dateto\": \"2022-03-22T16:14:00+00:00\", \"values\": {\"sessions_active\": 710 }}\r\n {\"index\" : { \"_index\" : \"nr_web_active_users_12\", \"_type\" : \"active_users\"}}\r\n {\"datefrom\": \"2022-03-22T16:13:00+00:00\",\"dateto\": \"2022-03-22T16:14:00+00:00\",\"values\": {\"sessions_active\": 730 } }\r\n# @timestamp",
          "options": {
            "raw": {
              "language": "json"
            }
          }
        },
        "url": "192.168.3.173:9200/_bulk/"
      },
      "response": []
    },
    {
      "name": "NR_WEB Tempo di Caricamento",
      "id": "28510220-28cd-4ad1-babd-df774216408f",
      "protocolProfileBehavior": {
        "disableBodyPruning": true
      },
      "request": {
        "method": "POST",
        "header": [],
        "body": {
          "mode": "raw",
          "raw": "{\"index\" : { \"_index\" : \"nr_web_tempo_medio_di_caricamento\", \"_type\" : \"tempo_medio_di_caricamento\"}}\r\n{ \"datefrom\": \"2022-03-22T16:23:00+00:00\",\"dateto\": \"2022-03-22T16:14:00+00:00\", \"values\": {\"sessions_active\": 710 }}\r\n{\"index\" : { \"_index\" : \"nr_web_tempo_medio_di_caricamento\", \"_type\" : \"tempo_medio_di_caricamento\"}}\r\n{\"from\": \"2022-04-11T11:46:00+00:00\",\"to\": \"2022-04-11T11:47:00+00:00\", \"values\": {\"average_dom_content_load_time\": 4040}}\r\n{\"index\" : { \"_index\" : \"nr_web_tempo_medio_di_caricamento\", \"_type\" : \"tempo_medio_di_caricamento\"}}\r\n{\"from\": \"2022-04-11T11:47:00+00:00\",\"to\": \"2022-04-11T11:48:00+00:00\", \"values\": {\"average_dom_content_load_time\": 2270} }\r\n{\"index\" : { \"_index\" : \"nr_web_tempo_medio_di_caricamento\", \"_type\" : \"tempo_medio_di_caricamento\"}}\r\n{\"from\": \"2022-04-11T11:48:00+00:00\",\"to\": \"2022-04-11T11:49:00+00:00\", \"values\": {\"average_dom_content_load_time\": 2040 }}\r\n{\"index\" : { \"_index\" : \"nr_web_tempo_medio_di_caricamento\", \"_type\" : \"tempo_medio_di_caricamento\"}}\r\n{\"from\": \"2022-04-11T11:49:00+00:00\",\"to\": \"2022-04-11T11:50:00+00:00\", \"values\": {\"average_dom_content_load_time\": 2690 }}\r\n{\"index\" : { \"_index\" : \"nr_web_tempo_medio_di_caricamento\", \"_type\" : \"tempo_medio_di_caricamento\"}}\r\n{\"from\": \"2022-04-11T11:50:00+00:00\", \"to\": \"2022-04-11T11:51:00+00:00\",\"values\": { \"average_dom_content_load_time\": 2150 }}\r\n{\"index\" : { \"_index\" : \"nr_web_tempo_medio_di_caricamento\", \"_type\" : \"tempo_medio_di_caricamento\"}}\r\n{\"from\": \"2022-04-11T11:51:00+00:00\", \"to\": \"2022-04-11T11:52:00+00:00\", \"values\": {\"average_dom_content_load_time\": 3120}}\r\n{\"index\" : { \"_index\" : \"nr_web_tempo_medio_di_caricamento\", \"_type\" : \"tempo_medio_di_caricamento\"}}\r\n{\"from\": \"2022-04-11T11:52:00+00:00\",\"to\": \"2022-04-11T11:53:00+00:00\", \"values\": {\"average_dom_content_load_time\": 2450 }}\r\n",
          "options": {
            "raw": {
              "language": "json"
            }
          }
        },
        "url": "192.168.3.173:9200/_bulk/"
      },
      "response": []
    },
    {
      "name": "datemills",
      "id": "45803ede-50dc-4430-a0fa-13b1243584b4",
      "protocolProfileBehavior": {
        "disableBodyPruning": true
      },
      "request": {
        "method": "PUT",
        "header": [],
        "body": {
          "mode": "raw",
          "raw": "{\"index\" : { \"_index\" : \"nr_web_active_users_14\", \"_type\" : \"active_users\"}}\r\n{ \"datefrom\": \"1648658787773\"}\r\n",
          "options": {
            "raw": {
              "language": "json"
            }
          }
        },
        "url": "192.168.3.173:9200/_bulk/"
      },
      "response": []
    },
    {
      "name": "esempio elastic",
      "id": "491199b5-eb21-4493-8a00-05c3b7650609",
      "protocolProfileBehavior": {
        "disableBodyPruning": true
      },
      "request": {
        "method": "POST",
        "header": [],
        "body": {
          "mode": "raw",
          "raw": " {\"index\" : { \"_index\" : \"nr_web_active_users_12\", \"_type\" : \"active_users\"}}\r\n { \"datefrom\": \"2022-03-22T16:23:00+00:00\",\"dateto\": \"2022-03-22T16:14:00+00:00\", \"values\": {\"sessions_active\": 710 }}\r\n {\"index\" : { \"_index\" : \"nr_web_active_users_12\", \"_type\" : \"active_users\"}}\r\n {\"datefrom\": \"2022-03-22T16:13:00+00:00\",\"dateto\": \"2022-03-22T16:14:00+00:00\",\"values\": {\"sessions_active\": 730 } }\r\n# @timestamp",
          "options": {
            "raw": {
              "language": "json"
            }
          }
        },
        "url": "192.168.3.173:9200/_bulk/"
      },
      "response": []
    },
    {
      "name": "esempio elastic Copy",
      "id": "7af77e48-2981-4720-a5fc-67c4d40b4991",
      "protocolProfileBehavior": {
        "disableBodyPruning": true
      },
      "request": {
        "method": "POST",
        "header": [],
        "body": {
          "mode": "raw",
          "raw": " {\"index\" : { \"_index\" : \"nr_web_active_users_12\", \"_type\" : \"active_users\"}}\r\n { \"datefrom\": \"2022-03-22T16:23:00+00:00\",\"dateto\": \"2022-03-22T16:14:00+00:00\", \"values\": {\"sessions_active\": 710 }}\r\n {\"index\" : { \"_index\" : \"nr_web_active_users_12\", \"_type\" : \"active_users\"}}\r\n {\"datefrom\": \"2022-03-22T16:13:00+00:00\",\"dateto\": \"2022-03-22T16:14:00+00:00\",\"values\": {\"sessions_active\": 730 } }\r\n# @timestamp",
          "options": {
            "raw": {
              "language": "json"
            }
          }
        },
        "url": "192.168.3.173:9200/_bulk/"
      },
      "response": []
    },
    {
      "name": "NR_UEBA Active Users----- DEF 12 APRILE 2022",
      "id": "53c79909-1c4b-407c-996d-b2b5ae5bf8cd",
      "protocolProfileBehavior": {
        "disableBodyPruning": true
      },
      "request": {
        "auth": {
          "type": "apikey",
          "apikey": {
            "value": "NRAK-AZLJBTU7V920Z3GPRLEA4VMPHOA",
            "key": "api-key",
            "in": "header"
          }
        },
        "method": "GET",
        "header": [],
        "url": {
          "raw": "https://api.eu.newrelic.com/v2/applications/19992440/metrics/data.json?application_id=19992440&names[]=EndUser/Session&values[]=sessions_active",
          "protocol": "https",
          "host": [
            "api",
            "eu",
            "newrelic",
            "com"
          ],
          "path": [
            "v2",
            "applications",
            "19992440",
            "metrics",
            "data.json"
          ],
          "query": [
            {
              "key": "application_id",
              "value": "19992440"
            },
            {
              "key": "names[]",
              "value": "EndUser/Session"
            },
            {
              "key": "values[]",
              "value": "sessions_active"
            }
          ]
        }
      },
      "response": []
    },
    {
      "name": "NR_UEBA Errori- Successi----- DEF 12 APRILE 2022",
      "id": "27b23dd0-6ce8-432a-9a50-448011a960ed",
      "protocolProfileBehavior": {
        "disableBodyPruning": true
      },
      "request": {
        "auth": {
          "type": "apikey",
          "apikey": {
            "value": "NRAK-AZLJBTU7V920Z3GPRLEA4VMPHOA",
            "key": "api-key",
            "in": "header"
          }
        },
        "method": "GET",
        "header": [],
        "url": {
          "raw": "https://api.newrelic.com/v2/applications/19992440/metrics/data.json?application_id=19992440&names[]=EndUser/errors&values[]=error_percentage",
          "protocol": "https",
          "host": [
            "api",
            "newrelic",
            "com"
          ],
          "path": [
            "v2",
            "applications",
            "19992440",
            "metrics",
            "data.json"
          ],
          "query": [
            {
              "key": "application_id",
              "value": "19992440"
            },
            {
              "key": "names[]",
              "value": "EndUser/errors"
            },
            {
              "key": "values[]",
              "value": "error_percentage"
            }
          ]
        }
      },
      "response": []
    },
    {
      "name": "NR_UEBATempo medio di caricamento ----- DEF 12 APRILE 2022",
      "id": "ccd3178f-1434-492a-aab2-aae4ec1fca7e",
      "protocolProfileBehavior": {
        "disableBodyPruning": true
      },
      "request": {
        "auth": {
          "type": "apikey",
          "apikey": {
            "value": "NRAK-AZLJBTU7V920Z3GPRLEA4VMPHOA",
            "key": "api-key",
            "in": "header"
          }
        },
        "method": "GET",
        "header": [],
        "url": {
          "raw": "https://api.newrelic.com/v2/applications/19992440/metrics/data.json?application_id=19992440&names[]=EndUser/errors&values[]=error_percentage",
          "protocol": "https",
          "host": [
            "api",
            "newrelic",
            "com"
          ],
          "path": [
            "v2",
            "applications",
            "19992440",
            "metrics",
            "data.json"
          ],
          "query": [
            {
              "key": "application_id",
              "value": "19992440"
            },
            {
              "key": "names[]",
              "value": "EndUser/errors"
            },
            {
              "key": "values[]",
              "value": "error_percentage"
            }
          ]
        }
      },
      "response": []
    },
    {
      "name": "NR_UEBA Tempo medio di sessione----- DEF 12 APRILE 2022",
      "id": "44e81125-b774-4493-bfa1-4ff1b2220a30",
      "protocolProfileBehavior": {
        "disableBodyPruning": true
      },
      "request": {
        "auth": {
          "type": "apikey",
          "apikey": {
            "value": "NRAK-AZLJBTU7V920Z3GPRLEA4VMPHOA",
            "key": "api-key",
            "in": "header"
          }
        },
        "method": "GET",
        "header": [],
        "body": {
          "mode": "raw",
          "raw": "query {\r\n      actor {\r\n             account(id: 1286434) {\r\n                       nrql(query: \\\"SELECT uniques(session), (max(timestamp)/1000) - (min(timestamp)/1000) from PageView since 5 minutes ago FACET session TIMESERIES 1 minute\\\") \r\n             {\r\n                        results\r\n                             }\r\n                                }\r\n                                  }\r\n                                  }\r\n"
        },
        "url": "https://api.newrelic.com/graphql"
      },
      "response": []
    },
    {
      "name": "NR_UEBA Tempo medio di CARICAMENTO---- DEF 12 APRILE 2022 Copy",
      "id": "69e4542e-99cc-435e-8fe5-ce059bbc68a9",
      "protocolProfileBehavior": {
        "disableBodyPruning": true
      },
      "request": {
        "auth": {
          "type": "apikey",
          "apikey": {
            "value": "NRAK-AZLJBTU7V920Z3GPRLEA4VMPHOA",
            "key": "api-key",
            "in": "header"
          }
        },
        "method": "GET",
        "header": [],
        "body": {
          "mode": "raw",
          "raw": "query {\r\n      actor {\r\n             account(id: 1286434) {\r\n                       nrql(query: \\\"SELECT uniques(session), (max(timestamp)/1000) - (min(timestamp)/1000) from PageView since 5 minutes ago FACET session TIMESERIES 1 minute\\\") \r\n             {\r\n                        results\r\n                             }\r\n                                }\r\n                                  }\r\n                                  }\r\n"
        },
        "url": "https://api.newrelic.com/graphql"
      },
      "response": []
    },
    {
      "name": "Ueba sessioni settembre",
      "id": "cd66f3da-837d-4704-806b-7603fca4f225",
      "protocolProfileBehavior": {
        "disableBodyPruning": true
      },
      "request": {
        "auth": {
          "type": "basic",
          "basic": {
            "password": "Agosto2022",
            "username": "E5923071"
          }
        },
        "method": "POST",
        "header": [],
        "body": {
          "mode": "raw",
          "raw": "{ \"index\" : { \"_index\" : \"dev_ueba_newrelic_session\", \"_type\" : \"_doc\"}}\r\n{\"facet\":\"f18e2801ba2d01d3\",\"beginTimeSeconds\":1662468644.537,\"constant\":-1.0,\"endTimeSeconds\":1662468644.537,\"session\":\"f18e2801ba2d01d3\",\"session_time\":0.0}\r\n{ \"index\" : { \"_index\" : \"dev_ueba_newrelic_session\", \"_type\" : \"_doc\"}}\r\n{\"facet\":\"8d0fcb23d92b6651\",\"beginTimeSeconds\":1662468218.948,\"constant\":-1.0,\"endTimeSeconds\":1662468218.948,\"session\":\"8d0fcb23d92b6651\",\"session_time\":0.0}\r\n",
          "options": {
            "raw": {
              "language": "json"
            }
          }
        },
        "url": "127.76.25.20:9200/_bulk"
      },
      "response": []
    }
  ],
  "auth": {
    "type": "basic",
    "basic": {
      "password": "giacosag",
      "username": "giacosag"
    }
  },
  "event": [
    {
      "listen": "prerequest",
      "script": {
        "id": "49f9b899-4c1b-4727-b80c-7db0de3a4972",
        "type": "text/javascript",
        "exec": [
          ""
        ]
      }
    },
    {
      "listen": "test",
      "script": {
        "id": "a0282a67-f189-4422-8250-d661203cc71d",
        "type": "text/javascript",
        "exec": [
          ""
        ]
      }
    }
  ]
}